
				
				

				

				<style type="text/css">
				
				.footer {
  font-family: Arial, Helvetica, sans-serif;
  font-size: 1em;
  font-size: 0.6em;
  top: 0cm;
  height: 2cm;
  margin-left: 2.5cm;
}
.footer span {
  margin-right: 0.1cm;
}
.footer span.footer-date-value,
.footer span.footer-id-value {
  margin-right: 1.5cm;
}
.page-break {
  page-break-after: always;
  page-break-inside: avoid;
}
				
				</style>
				


			
				
				
				

					<div class="footer" >
						<span class="footer-date-label">Auszug erstellt am:</span>
						<span class="footer-date-value">30.08.2013 18:24:40</span>
						<span class="footer-id-label">ID-Nr.:</span>
						<span class="footer-id-value">ec6db060-0db0-4e27-a2f9-33d6008f4799</span>
						<span class="footer-page-label">Seite</span>
						
						<span class="footer-page-value">{page_number} von {total_pages}</span>
					</div>
				
				
				